{
    "page": 1,
    "limit": 10,
    "pages": 3,
    "total": 22,
    "_links": {
        "self": {
            "href": "\/api\/v1\/products\/?sorting%5Bcode%5D=asc&page=1&limit=10"
        },
        "first": {
            "href": "\/api\/v1\/products\/?sorting%5Bcode%5D=asc&page=1&limit=10"
        },
        "last": {
            "href": "\/api\/v1\/products\/?sorting%5Bcode%5D=asc&page=3&limit=10"
        },
        "next": {
            "href": "\/api\/v1\/products\/?sorting%5Bcode%5D=asc&page=2&limit=10"
        }
    },
    "_embedded": {
        "items": [
            {
                "id": @integer@,
                "name": "Breaking bad mug",
                "code": "MUG_BB",
                "options": [],
                "averageRating": 0,
                "images": [],
                "_links": {
                    "self": {
                        "href": "\/api\/v1\/products\/MUG_BB"
                    }
                }
            },
            {
                "id": @integer@,
                "name": "Lotr mug",
                "code": "MUG_LOTR",
                "options": [],
                "averageRating": 0,
                "images": [],
                "_links": {
                    "self": {
                        "href": "\/api\/v1\/products\/MUG_LOTR"
                    }
                }
            },
            {
                "id": @integer@,
                "name": "Star Wars mug",
                "code": "MUG_SW",
                "options": [],
                "averageRating": 0,
                "images": [
                    {
                        "id": @integer@,
                        "type": "thumbnail",
                        "path": "\/uo\/product.jpg"
                    }
                ],
                "_links": {
                    "self": {
                        "href": "\/api\/v1\/products\/MUG_SW"
                    }
                }
            },
            {
                "id": @integer@,
                "name": "Product 10",
                "code": "PRODUCT_10",
                "options": [],
                "averageRating": 0,
                "images": [],
                "_links": {
                    "self": {
                        "href": "\/api\/v1\/products\/PRODUCT_10"
                    }
                }
            },
            {
                "id": @integer@,
                "name": "Product 11",
                "code": "PRODUCT_11",
                "options": [],
                "averageRating": 0,
                "images": [],
                "_links": {
                    "self": {
                        "href": "\/api\/v1\/products\/PRODUCT_11"
                    }
                }
            },
            {
                "id": @integer@,
                "name": "Product 12",
                "code": "PRODUCT_12",
                "options": [],
                "averageRating": 0,
                "images": [],
                "_links": {
                    "self": {
                        "href": "\/api\/v1\/products\/PRODUCT_12"
                    }
                }
            },
            {
                "id": @integer@,
                "name": "Product 13",
                "code": "PRODUCT_13",
                "options": [],
                "averageRating": 0,
                "images": [],
                "_links": {
                    "self": {
                        "href": "\/api\/v1\/products\/PRODUCT_13"
                    }
                }
            },
            {
                "id": @integer@,
                "name": "Product 14",
                "code": "PRODUCT_14",
                "options": [],
                "averageRating": 0,
                "images": [],
                "_links": {
                    "self": {
                        "href": "\/api\/v1\/products\/PRODUCT_14"
                    }
                }
            },
            {
                "id": @integer@,
                "name": "Product 15",
                "code": "PRODUCT_15",
                "options": [],
                "averageRating": 0,
                "images": [],
                "_links": {
                    "self": {
                        "href": "\/api\/v1\/products\/PRODUCT_15"
                    }
                }
            },
            {
                "id": @integer@,
                "name": "Product 16",
                "code": "PRODUCT_16",
                "options": [],
                "averageRating": 0,
                "images": [],
                "_links": {
                    "self": {
                        "href": "\/api\/v1\/products\/PRODUCT_16"
                    }
                }
            }
        ]
    }
}
