{
    "page": 1,
    "limit": 10,
    "pages": 2,
    "total": 20,
    "_links": {
        "self": {
            "href": "\/api\/v1\/products\/MUG_SW\/variants\/?page=1&limit=10"
        },
        "first": {
            "href": "\/api\/v1\/products\/MUG_SW\/variants\/?page=1&limit=10"
        },
        "last": {
            "href": "\/api\/v1\/products\/MUG_SW\/variants\/?page=2&limit=10"
        },
        "next": {
            "href": "\/api\/v1\/products\/MUG_SW\/variants\/?page=2&limit=10"
        }
    },
    "_embedded": {
        "items": [
            {
                "id": @integer@,
                "code": "MUG_1",
                "optionValues": [],
                "position": 1,
                "translations": {
                    "en_US": {
                        "id": @integer@,
                        "locale": "en_US",
                        "name": "Mug 1"
                    }
                },
                "version": 1,
                "tracked": false,
                "channelPricings": [],
                "_links": {
                    "self": {
                        "href": "\/api\/v1\/products\/MUG_SW\/variants\/MUG_1"
                    }
                }
            },
            {
                "id": @integer@,
                "code": "MUG_2",
                "optionValues": [],
                "position": 2,
                "translations": {
                    "en_US": {
                        "id": @integer@,
                        "locale": "en_US",
                        "name": "Mug 2"
                    }
                },
                "version": 1,
                "tracked": false,
                "channelPricings": [],
                "_links": {
                    "self": {
                        "href": "\/api\/v1\/products\/MUG_SW\/variants\/MUG_2"
                    }
                }
            },
            {
                "id": @integer@,
                "code": "MUG_3",
                "optionValues": [],
                "position": 3,
                "translations": {
                    "en_US": {
                        "id": @integer@,
                        "locale": "en_US",
                        "name": "Mug 3"
                    }
                },
                "version": 1,
                "tracked": false,
                "channelPricings": [],
                "_links": {
                    "self": {
                        "href": "\/api\/v1\/products\/MUG_SW\/variants\/MUG_3"
                    }
                }
            },
            {
                "id": @integer@,
                "code": "MUG_4",
                "optionValues": [],
                "position": 4,
                "translations": {
                    "en_US": {
                        "id": @integer@,
                        "locale": "en_US",
                        "name": "Mug 4"
                    }
                },
                "version": 1,
                "tracked": false,
                "channelPricings": [],
                "_links": {
                    "self": {
                        "href": "\/api\/v1\/products\/MUG_SW\/variants\/MUG_4"
                    }
                }
            },
            {
                "id": @integer@,
                "code": "MUG_5",
                "optionValues": [],
                "position": 5,
                "translations": {
                    "en_US": {
                        "id": @integer@,
                        "locale": "en_US",
                        "name": "Mug 5"
                    }
                },
                "version": 1,
                "tracked": false,
                "channelPricings": [],
                "_links": {
                    "self": {
                        "href": "\/api\/v1\/products\/MUG_SW\/variants\/MUG_5"
                    }
                }
            },
            {
                "id": @integer@,
                "code": "MUG_6",
                "optionValues": [],
                "position": 6,
                "translations": {
                    "en_US": {
                        "id": @integer@,
                        "locale": "en_US",
                        "name": "Mug 6"
                    }
                },
                "version": 1,
                "tracked": false,
                "channelPricings": [],
                "_links": {
                    "self": {
                        "href": "\/api\/v1\/products\/MUG_SW\/variants\/MUG_6"
                    }
                }
            },
            {
                "id": @integer@,
                "code": "MUG_7",
                "optionValues": [],
                "position": 7,
                "translations": {
                    "en_US": {
                        "id": @integer@,
                        "locale": "en_US",
                        "name": "Mug 7"
                    }
                },
                "version": 1,
                "tracked": false,
                "channelPricings": [],
                "_links": {
                    "self": {
                        "href": "\/api\/v1\/products\/MUG_SW\/variants\/MUG_7"
                    }
                }
            },
            {
                "id": @integer@,
                "code": "MUG_8",
                "optionValues": [],
                "position": 8,
                "translations": {
                    "en_US": {
                        "id": @integer@,
                        "locale": "en_US",
                        "name": "Mug 8"
                    }
                },
                "version": 1,
                "tracked": false,
                "channelPricings": [],
                "_links": {
                    "self": {
                        "href": "\/api\/v1\/products\/MUG_SW\/variants\/MUG_8"
                    }
                }
            },
            {
                "id": @integer@,
                "code": "MUG_9",
                "optionValues": [],
                "position": 9,
                "translations": {
                    "en_US": {
                        "id": @integer@,
                        "locale": "en_US",
                        "name": "Mug 9"
                    }
                },
                "version": 1,
                "tracked": false,
                "channelPricings": [],
                "_links": {
                    "self": {
                        "href": "\/api\/v1\/products\/MUG_SW\/variants\/MUG_9"
                    }
                }
            },
            {
                "id": @integer@,
                "code": "MUG_10",
                "optionValues": [],
                "position": 10,
                "translations": {
                    "en_US": {
                        "id": @integer@,
                        "locale": "en_US",
                        "name": "Mug 10"
                    }
                },
                "version": 1,
                "tracked": false,
                "channelPricings": [],
                "_links": {
                    "self": {
                        "href": "\/api\/v1\/products\/MUG_SW\/variants\/MUG_10"
                    }
                }
            }
        ]
    }
}