{
  "page": 2,
  "limit": 10,
  "pages": 3,
  "total": 22,
  "_links": {
    "self": {
      "href": "@string@"
    },
    "first": {
      "href": "@string@"
    },
    "last": {
      "href": "@string@"
    },
    "next": {
      "href": "@string@"
    },
    "previous": {
      "href": "@string@"
    }
  },
  "_embedded": {
    "items": [
      {
        "id": @integer@,
        "title": "Book 11",
        "author": "@string@"
      },
      {
        "id": @integer@,
        "title": "Book 12",
        "author": "@string@"
      },
      {
        "id": @integer@,
        "title": "Book 13",
        "author": "@string@"
      },
      {
        "id": @integer@,
        "title": "Book 14",
        "author": "@string@"
      },
      {
        "id": @integer@,
        "title": "Book 15",
        "author": "@string@"
      },
      {
        "id": @integer@,
        "title": "Book 16",
        "author": "@string@"
      },
      {
        "id": @integer@,
        "title": "Book 17",
        "author": "@string@"
      },
      {
        "id": @integer@,
        "title": "Book 18",
        "author": "@string@"
      },
      {
        "id": @integer@,
        "title": "Book 19",
        "author": "@string@"
      },
      {
        "id": @integer@,
        "title": "Book 20",
        "author": "@string@"
      }
    ]
  }
}
