{
    "page": 2,
    "limit": 10,
    "pages": 3,
    "total": 22,
    "_links": {
        "self": {
            "href": "\/api\/v1\/products\/?page=2&limit=10"
        },
        "first": {
            "href": "\/api\/v1\/products\/?page=1&limit=10"
        },
        "last": {
            "href": "\/api\/v1\/products\/?page=3&limit=10"
        },
        "next": {
            "href": "\/api\/v1\/products\/?page=3&limit=10"
        },
        "previous": {
            "href": "\/api\/v1\/products\/?page=1&limit=10"
        }
    },
    "_embedded": {
        "items": [
            {
                "id": @integer@,
                "name": "Product 11",
                "code": "PRODUCT_11",
                "options": [],
                "average_rating": 0,
                "images": [],
                "_links": {
                    "self": {
                        "href": "@string@"
                    }
                }
            },
            {
                "id": @integer@,
                "name": "Product 12",
                "code": "PRODUCT_12",
                "options": [],
                "average_rating": 0,
                "images": [],
                "_links": {
                    "self": {
                        "href": "@string@"
                    }
                }
            },
            {
                "id": @integer@,
                "name": "Product 13",
                "code": "PRODUCT_13",
                "options": [],
                "average_rating": 0,
                "images": [],
                "_links": {
                    "self": {
                        "href": "@string@"
                    }
                }
            },
            {
                "id": @integer@,
                "name": "Product 14",
                "code": "PRODUCT_14",
                "options": [],
                "average_rating": 0,
                "images": [],
                "_links": {
                    "self": {
                        "href": "@string@"
                    }
                }
            },
            {
                "id": @integer@,
                "name": "Product 15",
                "code": "PRODUCT_15",
                "options": [],
                "average_rating": 0,
                "images": [],
                "_links": {
                    "self": {
                        "href": "@string@"
                    }
                }
            },
            {
                "id": @integer@,
                "name": "Product 16",
                "code": "PRODUCT_16",
                "options": [],
                "average_rating": 0,
                "images": [],
                "_links": {
                    "self": {
                        "href": "@string@"
                    }
                }
            },
            {
                "id": @integer@,
                "name": "Product 17",
                "code": "PRODUCT_17",
                "options": [],
                "average_rating": 0,
                "images": [],
                "_links": {
                    "self": {
                        "href": "@string@"
                    }
                }
            },
            {
                "id": @integer@,
                "name": "Product 18",
                "code": "PRODUCT_18",
                "options": [],
                "average_rating": 0,
                "images": [],
                "_links": {
                    "self": {
                        "href": "@string@"
                    }
                }
            },
            {
                "id": @integer@,
                "name": "Product 19",
                "code": "PRODUCT_19",
                "options": [],
                "average_rating": 0,
                "images": [],
                "_links": {
                    "self": {
                        "href": "@string@"
                    }
                }
            },
            {
                "id": @integer@,
                "name": "Product 20",
                "code": "PRODUCT_20",
                "options": [],
                "average_rating": 0,
                "images": [],
                "_links": {
                    "self": {
                        "href": "@string@"
                    }
                }
            }
        ]
    }
}
