{
    "page": 1,
    "limit": 10,
    "pages": 3,
    "total": 22,
    "_links": {
        "self": {
            "href": "\/admin\/ajax\/products\/?page=1&limit=10"
        },
        "first": {
            "href": "\/admin\/ajax\/products\/?page=1&limit=10"
        },
        "last": {
            "href": "\/admin\/ajax\/products\/?page=3&limit=10"
        },
        "next": {
            "href": "\/admin\/ajax\/products\/?page=2&limit=10"
        }
    },
    "_embedded": {
        "items": [
            {
                "id": @integer@,
                "name": "Breaking bad mug",
                "code": "MUG_BB",
                "options": [],
                "averageRating": 0,
                "images": []
            },
            {
                "id": @integer@,
                "name": "Lotr mug",
                "code": "MUG_LOTR",
                "options": [],
                "averageRating": 0,
                "images": []
            },
            {
                "id": @integer@,
                "name": "Star Wars mug",
                "code": "MUG_SW",
                "options": [],
                "averageRating": 0,
                "images": [
                    {
                        "id": @integer@,
                        "type": "thumbnail",
                        "path": "\/uo\/product.jpg"
                    }
                ]
            },
            {
                "id": @integer@,
                "name": "Product 10",
                "code": "PRODUCT_10",
                "options": [],
                "averageRating": 0,
                "images": []
            },
            {
                "id": @integer@,
                "name": "Product 11",
                "code": "PRODUCT_11",
                "options": [],
                "averageRating": 0,
                "images": []
            },
            {
                "id": @integer@,
                "name": "Product 12",
                "code": "PRODUCT_12",
                "options": [],
                "averageRating": 0,
                "images": []
            },
            {
                "id": @integer@,
                "name": "Product 13",
                "code": "PRODUCT_13",
                "options": [],
                "averageRating": 0,
                "images": []
            },
            {
                "id": @integer@,
                "name": "Product 14",
                "code": "PRODUCT_14",
                "options": [],
                "averageRating": 0,
                "images": []
            },
            {
                "id": @integer@,
                "name": "Product 15",
                "code": "PRODUCT_15",
                "options": [],
                "averageRating": 0,
                "images": []
            },
            {
                "id": @integer@,
                "name": "Product 16",
                "code": "PRODUCT_16",
                "options": [],
                "averageRating": 0,
                "images": []
            }
        ]
    }
}
