{
    "page": 2,
    "limit": 10,
    "pages": 2,
    "total": 20,
    "_links": {
        "self": {
            "href": "@string@"
        },
        "first": {
            "href": "@string@"
        },
        "last": {
            "href": "@string@"
        },
        "previous": {
            "href": "@string@"
        }
    },
    "_embedded": {
        "items": [
            {
                "id": @integer@,
                "code": "MUG_11",
                "option_values": [],
                "position": 11,
                "translations": {
                    "en_US": {
                        "id": @integer@,
                        "locale": "en_US",
                        "name": "Mug 11"
                    }
                },
                "tracked": false,
                "channel_pricings": [],
                "_links": {
                    "self": {
                        "href": "@string@"
                    },
                    "product": {
                        "href": "@string@"
                    }
                }
            },
            {
                "id": @integer@,
                "code": "MUG_12",
                "option_values": [],
                "position": 12,
                "translations": {
                    "en_US": {
                        "id": @integer@,
                        "locale": "en_US",
                        "name": "Mug 12"
                    }
                },
                "tracked": false,
                "channel_pricings": [],
                "_links": {
                    "self": {
                        "href": "@string@"
                    },
                    "product": {
                        "href": "@string@"
                    }
                }
            },
            {
                "id": @integer@,
                "code": "MUG_13",
                "option_values": [],
                "position": 13,
                "translations": {
                    "en_US": {
                        "id": @integer@,
                        "locale": "en_US",
                        "name": "Mug 13"
                    }
                },
                "tracked": false,
                "channel_pricings": [],
                "_links": {
                    "self": {
                        "href": "@string@"
                    },
                    "product": {
                        "href": "@string@"
                    }
                }
            },
            {
                "id": @integer@,
                "code": "MUG_14",
                "option_values": [],
                "position": 14,
                "translations": {
                    "en_US": {
                        "id": @integer@,
                        "locale": "en_US",
                        "name": "Mug 14"
                    }
                },
                "tracked": false,
                "channel_pricings": [],
                "_links": {
                    "self": {
                        "href": "@string@"
                    },
                    "product": {
                        "href": "@string@"
                    }
                }
            },
            {
                "id": @integer@,
                "code": "MUG_15",
                "option_values": [],
                "position": 15,
                "translations": {
                    "en_US": {
                        "id": @integer@,
                        "locale": "en_US",
                        "name": "Mug 15"
                    }
                },
                "tracked": false,
                "channel_pricings": [],
                "_links": {
                    "self": {
                        "href": "@string@"
                    },
                    "product": {
                        "href": "@string@"
                    }
                }
            },
            {
                "id": @integer@,
                "code": "MUG_16",
                "option_values": [],
                "position": 16,
                "translations": {
                    "en_US": {
                        "id": @integer@,
                        "locale": "en_US",
                        "name": "Mug 16"
                    }
                },
                "tracked": false,
                "channel_pricings": [],
                "_links": {
                    "self": {
                        "href": "@string@"
                    },
                    "product": {
                        "href": "@string@"
                    }
                }
            },
            {
                "id": @integer@,
                "code": "MUG_17",
                "option_values": [],
                "position": 17,
                "translations": {
                    "en_US": {
                        "id": @integer@,
                        "locale": "en_US",
                        "name": "Mug 17"
                    }
                },
                "tracked": false,
                "channel_pricings": [],
                "_links": {
                    "self": {
                        "href": "@string@"
                    },
                    "product": {
                        "href": "@string@"
                    }
                }
            },
            {
                "id": @integer@,
                "code": "MUG_18",
                "option_values": [],
                "position": 18,
                "translations": {
                    "en_US": {
                        "id": @integer@,
                        "locale": "en_US",
                        "name": "Mug 18"
                    }
                },
                "tracked": false,
                "channel_pricings": [],
                "_links": {
                    "self": {
                        "href": "@string@"
                    },
                    "product": {
                        "href": "@string@"
                    }
                }
            },
            {
                "id": @integer@,
                "code": "MUG_19",
                "option_values": [],
                "position": 19,
                "translations": {
                    "en_US": {
                        "id": @integer@,
                        "locale": "en_US",
                        "name": "Mug 19"
                    }
                },
                "tracked": false,
                "channel_pricings": [],
                "_links": {
                    "self": {
                        "href": "@string@"
                    },
                    "product": {
                        "href": "@string@"
                    }
                }
            },
            {
                "id": @integer@,
                "code": "MUG_20",
                "option_values": [],
                "position": 20,
                "translations": {
                    "en_US": {
                        "id": @integer@,
                        "locale": "en_US",
                        "name": "Mug 20"
                    }
                },
                "tracked": false,
                "channel_pricings": [],
                "_links": {
                    "self": {
                        "href": "@string@"
                    },
                    "product": {
                        "href": "@string@"
                    }
                }
            }
        ]
    }
}
